nl/wilbrink/Application.class
nl/wilbrink/movies/service/MoviesService$TMDBMoviesResource$HystrixMoviesFallbackFactory.class
nl/wilbrink/actors/service/ActorsService.class
nl/wilbrink/movies/mapper/MovieMapper.class
nl/wilbrink/movies/entity/tmdb/TMDBGetMovieResponse$Genre.class
nl/wilbrink/movies/service/MoviesService.class
nl/wilbrink/movies/entity/tmdb/TMDBGetMovieResponse$Collection.class
nl/wilbrink/movies/service/MoviesService$TMDBMoviesResource$HystrixMoviesFallbackFactory$1.class
nl/wilbrink/movies/entity/tmdb/TMDBGetMovieCreditsResponse$Crew.class
nl/wilbrink/actors/service/ActorsService$ActorsResource$HystrixActorsFallbackFactory.class
nl/wilbrink/movies/entity/tmdb/TMDBGetMovieResponse$ProductionCountry.class
nl/wilbrink/movies/dto/MovieDTO.class
nl/wilbrink/movies/dto/SearchMovieRequest.class
nl/wilbrink/movies/service/MoviesService$TMDBMoviesResource.class
nl/wilbrink/movies/dto/MovieActorDTO.class
nl/wilbrink/movies/entity/tmdb/TMDBGetMovieCreditsResponse.class
nl/wilbrink/movies/entity/tmdb/TMDBGetMovieResponse.class
nl/wilbrink/movies/entity/tmdb/TMDBGetMovieResponse$ProductionCompany.class
nl/wilbrink/movies/entity/tmdb/TMDBGetMovieCreditsResponse$Cast.class
nl/wilbrink/movies/entity/Movie.class
nl/wilbrink/movies/entity/tmdb/TMDBSearchMovieResponse.class
nl/wilbrink/movies/controller/MoviesController.class
nl/wilbrink/movies/mapper/MovieActorMapperImpl.class
nl/wilbrink/movies/entity/MovieActor.class
nl/wilbrink/ApplicationConfig$1.class
nl/wilbrink/actors/service/ActorsService$ActorsResource.class
nl/wilbrink/movies/entity/tmdb/TMDBGetMovieResponse$SpokenLanguage.class
nl/wilbrink/actors/dto/ActorDTO.class
nl/wilbrink/actors/service/ActorsService$ActorsResource$HystrixActorsFallbackFactory$1.class
nl/wilbrink/ApplicationConfig.class
nl/wilbrink/movies/mapper/MovieActorMapper.class
nl/wilbrink/movies/mapper/MovieMapperImpl.class
nl/wilbrink/movies/repository/MovieRepository.class
nl/wilbrink/movies/entity/tmdb/TMDBSearchMovieResponse$Result.class
